{
    "version": "https://jsonfeed.org/version/1",
    "title": "SYZG Loader",
    "description": "",
    "home_page_url": "https://gitlab.com/rianmadrock/syzg-loader/public",
    "feed_url": "https://gitlab.com/rianmadrock/syzg-loader/public/feed.json",
    "user_comment": "",
    "author": {
        "name": "Ade Nurwenda"
    },
    "items": [
        {
            "id": "https://gitlab.com/rianmadrock/syzg-loader/public/wheel-loader-type-zl918/",
            "url": "https://gitlab.com/rianmadrock/syzg-loader/public/wheel-loader-type-zl918/",
            "title": "Wheel Loader - Type ZL918",
            "summary": " WHEEL LOADER : Type ZL918 Rated Loading : 800 Kg Bucket Capacity : 0.5 m3 Engine Power : 42 KW Dumping Height : 2.8 m Engine Brand : CHANGFA HARGA : Rp 176.000.000 Include PPN ",
            "content_html": "<div class=\"product-details\">\n<div class=\"product-img\"> </div>\n<div class=\"product-desc\">\n<p>WHEEL LOADER :</p>\n<p>Type ZL918</p>\n<p>Rated Loading : 800 Kg</p>\n<p>Bucket Capacity : 0.5 m3</p>\n<p>Engine Power : 42 KW</p>\n<p>Dumping Height : 2.8 m</p>\n<p>Engine Brand : CHANGFA</p>\n<p>HARGA : Rp 176.000.000 Include PPN</p>\n</div>\n</div>",
            "image": "https://gitlab.com/rianmadrock/syzg-loader/public/media/posts/4/ZL918.jpg",
            "author": {
                "name": "Ade Nurwenda"
            },
            "tags": [
                   "Wheel Loader",
                   "Produk SYZG"
            ],
            "date_published": "2022-01-16T14:08:48+07:00",
            "date_modified": "2022-01-16T20:48:33+07:00"
        }
    ]
}
